{
    "error": false,
    "version": "fourteen",
    "filename": "PixelOS_martini-14.0-20231112-0304.zip",
    "datetime": 1699758141,
    "size": 2373674431,
    "url": "https://sourceforge.net/projects/pixelos-releases/files/fourteen/martini/PixelOS_martini-14.0-20231112-0304.zip",
    "github_releases_url": "https://sourceforge.net/projects/pixelos-releases/files/fourteen/martini/PixelOS_martini-14.0-20231112-0304.zip",
    "filehash": "fd573a9dec3dad735697fc6e4c3cb613",
    "id": "fd573a9dec3dad735697fc6e4c3cb613",
    "maintainers": [
        {
            "main_maintainer": false,
            "github_username": "bheatleyyy",
            "name": "Sugakesshaa"
        }
    ],
    "donate_url": "",
    "website_url": "https://pixelos.net/",
    "news_url": "https://blog.pixelos.net/",
    "forum_url": ""
}
